<?xml version="1.0" encoding="UTF-8" standalone="no"?>
<!-- Created with Inkscape (http://www.inkscape.org/) -->

<svg
   xmlns:dc="http://purl.org/dc/elements/1.1/"
   xmlns:cc="http://creativecommons.org/ns#"
   xmlns:rdf="http://www.w3.org/1999/02/22-rdf-syntax-ns#"
   xmlns:svg="http://www.w3.org/2000/svg"
   xmlns="http://www.w3.org/2000/svg"
   xmlns:xlink="http://www.w3.org/1999/xlink"
   xmlns:sodipodi="http://sodipodi.sourceforge.net/DTD/sodipodi-0.dtd"
   xmlns:inkscape="http://www.inkscape.org/namespaces/inkscape"
   version="1.1"
   id="svg4036"
   width="163.84"
   height="163.84"
   viewBox="0 0 163.84 163.84"
   sodipodi:docname="4.svg"
   inkscape:version="0.92.4 5da689c313, 2019-01-14">
  <metadata
     id="metadata4042">
    <rdf:RDF>
      <cc:Work
         rdf:about="">
        <dc:format>image/svg+xml</dc:format>
        <dc:type
           rdf:resource="http://purl.org/dc/dcmitype/StillImage" />
        <dc:title></dc:title>
      </cc:Work>
    </rdf:RDF>
  </metadata>
  <defs
     id="defs4040" />
  <sodipodi:namedview
     pagecolor="#ffffff"
     bordercolor="#666666"
     borderopacity="1"
     objecttolerance="10"
     gridtolerance="10"
     guidetolerance="10"
     inkscape:pageopacity="0"
     inkscape:pageshadow="2"
     inkscape:window-width="1920"
     inkscape:window-height="1028"
     id="namedview4038"
     showgrid="false"
     inkscape:zoom="2.8808594"
     inkscape:cx="115.49582"
     inkscape:cy="42.623618"
     inkscape:window-x="0"
     inkscape:window-y="26"
     inkscape:window-maximized="1"
     inkscape:current-layer="svg4036" />

  <path
     style="fill:#000000;stroke-width:0.31999999"
     d="m 64.908102,152.16144 c -0.08721,-0.0872 -0.867209,-0.22874 -1.733331,-0.31452 -1.977709,-0.19585 -4.266617,-0.71145 -6.534771,-1.47203 -0.968,-0.3246 -2.472691,-0.68839 -3.343757,-0.80843 -0.871065,-0.12003 -2.254681,-0.61384 -3.074701,-1.09734 -0.820022,-0.4835 -2.123331,-1.18467 -2.896243,-1.55814 -1.382579,-0.66807 -5.614339,-3.5409 -6.005334,-4.07687 -0.345683,-0.47385 -3.331632,-2.82132 -4.999965,-3.93082 -0.88,-0.58523 -2.079222,-1.62188 -2.664934,-2.30367 -0.585716,-0.68179 -1.339444,-1.23962 -1.674953,-1.23962 -0.335509,0 -1.023316,-0.396 -1.528461,-0.88 -1.014521,-0.97205 -5.464443,-7.74569 -7.466752,-11.36582 -1.598905,-2.89079 -3.315378,-7.02954 -3.614054,-8.71418 -0.124814,-0.704 -0.850418,-2.504 -1.612452,-4 -0.762035,-1.496 -1.84199,-4.088 -2.3999,-5.76 -0.55791,-1.672 -1.577807,-4.00117 -2.266438,-5.175946 C 12.403425,98.289283 11.84,97.094134 11.84,96.808163 c 0,-0.285971 -0.231784,-0.968166 -0.515076,-1.515993 -0.41463,-0.801805 -0.539666,-2.3744 -0.641174,-8.064109 -0.06935,-3.887434 -0.281055,-7.740067 -0.470447,-8.561408 -0.224815,-0.97496 -0.2371379,-1.696992 -0.0355,-2.08 C 10.34767,76.263994 10.5816,75.064 10.697646,73.92 c 0.116047,-1.144 0.502395,-3.088 0.858551,-4.32 0.356157,-1.232 1.285712,-3.898304 2.06568,-5.925123 C 14.401845,61.648061 15.04,59.688333 15.04,59.319923 c 0,-0.368406 0.432,-1.479382 0.96,-2.468832 0.528,-0.989449 0.960538,-2.269718 0.961196,-2.845043 C 16.961868,53.43072 17.230676,52.528 17.558579,52 c 0.327902,-0.528 1.396419,-1.956918 2.374482,-3.175379 0.978063,-1.218458 2.570046,-3.666458 3.537741,-5.44 1.405109,-2.575213 2.482161,-3.985229 5.34808,-7.001405 2.039946,-2.146899 4.225713,-4.123744 5.064878,-4.580764 3.082061,-1.678533 6.318621,-3.788368 6.48416,-4.226867 0.09949,-0.263539 3.162384,-2.548948 5.257382,-3.922849 0.425428,-0.278995 0.685812,-0.594955 0.578634,-0.702133 -0.2136,-0.213599 1.990998,-1.342495 5.477248,-2.804703 1.23265,-0.517 2.41087,-1.211715 2.618269,-1.543812 l 0.377088,-0.603812 -1.658272,0.03801 c -1.748426,0.04008 -3.288832,-0.54531 -3.861559,-1.467482 -0.248681,-0.400412 -0.23688,-0.656637 0.04314,-0.936655 0.295396,-0.295393 0.751754,-0.300913 1.953044,-0.02362 0.975254,0.225116 1.975577,0.258258 2.647344,0.08771 0.593872,-0.150771 1.470684,-0.361572 1.94847,-0.468447 0.599114,-0.134014 0.811933,-0.342268 0.685763,-0.671056 -0.10599,-0.276213 -2.91e-4,-0.481019 0.251296,-0.486916 C 57.321469,14.054924 56.003699,13.12 55.346992,13.12 54.556861,13.12 52.20152,11.438257 51.49888,10.3724 51.160816,9.8595802 50.883267,9.116 50.882109,8.72 50.880614,8.2096762 51.068707,8 51.528,8 51.993718,8 52.230662,8.2733075 52.370317,8.9715837 52.613616,10.188077 54.550778,11.84 55.734026,11.84 c 0.47751,0 0.9572,0.144 1.065974,0.32 0.215904,0.349339 2.08,0.44962 2.08,0.111895 0,-0.114458 -0.361888,-0.947775 -0.804192,-1.851815 -0.500253,-1.022481 -0.832845,-2.3044237 -0.88,-3.3918947 C 57.128154,5.468064 57.188848,5.28 57.76,5.28 c 0.531296,0 0.66977,0.2717587 0.815277,1.6 0.187984,1.7159997 1.145699,3.837766 2.110672,4.676076 0.723001,0.628099 2.232429,0.910342 3.314051,0.619683 l 0.8,-0.21498 -0.74831,-0.4068 C 62.871651,10.912482 60.8,8.930327 60.8,8.4427642 60.8,7.7581741 62.014656,7.9199808 62.409165,8.6571235 62.785978,9.3612077 64.540634,10.556832 65.2,10.558804 66.023078,10.561268 65.549882,9.944057 63.99536,8.9875498 62.453898,8.039079 61.00776,6.268984 61.227786,5.6 61.285674,5.424 61.573101,5.2334413 61.866518,5.1765363 62.212509,5.1094346 62.4,5.2852038 62.4,5.6766672 c 0,0.6441786 1.392198,2.1002138 2.32,2.4263802 0.308,0.1082764 0.56,0.057386 0.56,-0.1130906 0,-0.5269738 0.831574,-0.3422605 1.428464,0.3172976 l 0.567658,0.6272544 1.056425,-0.8057754 1.056426,-0.805775 -0.509402,-0.8875859 C 68.590906,5.9324042 68.46543,5.2995283 68.59001,4.9748787 c 0.165689,-0.4317789 0.435408,-0.5257805 1.094918,-0.3815965 0.48129,0.1052208 1.168474,0.2755706 1.527075,0.3785549 0.410563,0.1179066 0.981338,-0.071811 1.541363,-0.5123273 C 73.53663,3.8433949 73.618221,3.614873 73.437283,2.5439257 73.31985,1.8488324 73.384061,1.0434851 73.587178,0.66395642 73.782614,0.29878039 74.22545,0 74.571258,0 74.98808,0 75.2,0.21717939 75.2,0.64434202 c 0,0.35438812 0.169277,0.91539718 0.37617,1.24668668 0.312217,0.4999378 0.448227,0.5302878 0.8,0.1785151 C 76.609277,1.8364376 76.8,1.266305 76.8,0.80258243 76.8,0.0441209 76.904442,-0.03047948 77.84,0.05972529 78.637104,0.13658034 78.903882,0.32815962 78.982256,0.88 c 0.05624,0.396 0.23624,0.72 0.4,0.72 0.16376,0 0.297744,0.372 0.297744,0.8266667 0,0.5182568 0.149232,0.7775208 0.4,0.694935 C 80.3,3.0491493 80.526016,2.6771493 80.582256,2.2949351 80.638496,1.9127208 80.818496,1.6 80.982256,1.6 81.146016,1.6 81.28,1.24 81.28,0.8 81.28,0.12444444 81.429334,0 82.24,0 83.085443,0 83.2,0.11047071 83.2,0.92576358 83.2,2.0589593 84.051389,2.4961181 84.679741,1.6855587 84.920874,1.3745014 85.060058,0.868 84.98904,0.56 84.89505,0.15237477 85.05888,0 85.591136,0 c 0.505699,0 0.85015,0.28712525 1.116838,0.93096717 0.301581,0.72807993 0.300669,1.08969583 -0.0042,1.65930883 -0.348172,0.6505675 -0.279452,0.8269323 0.643543,1.651628 0.666809,0.5957949 1.221209,0.8488627 1.562998,0.7134666 0.291315,-0.1154007 0.997664,-0.2884096 1.569664,-0.3844647 l 1.04,-0.1746451 v 0.9626874 c 0,0.529478 -0.223965,1.1485603 -0.497696,1.3757385 -0.440454,0.3655437 -0.394448,0.4975443 0.4,1.1476739 0.493731,0.4040429 1.055379,0.7398016 1.248099,0.7461312 0.192724,0.00633 0.603687,-0.2683664 0.913255,-0.6104352 0.459014,-0.5072054 0.672835,-0.5532572 1.159027,-0.2496272 0.483507,0.3019562 0.76225,0.2483226 1.474976,-0.2838051 C 96.700989,7.1237574 97.319907,6.4253338 97.593021,5.9325718 98.114243,4.9921546 98.662298,4.7976832 98.80335,5.5030973 98.963747,6.3052291 97.595562,8.0086381 96.004627,8.9875498 95.12209,9.5305901 94.4,10.106544 94.4,10.267448 94.4,11.108526 96.65865,9.9620042 97.596563,8.6448285 97.974422,8.1141728 98.422294,7.68 98.591834,7.68 c 0.169539,0 0.394438,0.2245965 0.499776,0.4991034 0.223254,0.5817932 -1.116458,2.0945326 -2.750644,3.1058966 l -1.099033,0.680168 0.792045,0.211826 c 0.435625,0.116504 1.259977,0.143148 1.831891,0.05921 1.128947,-0.165694 2.044029,-1.166937 3.237311,-3.5421307 0.47357,-0.9426246 0.63222,-1.6775833 0.49601,-2.2977494 -0.15507,-0.7060451 -0.0588,-0.9875418 0.42667,-1.2473479 0.46574,-0.2492582 0.71893,-0.2246841 0.98472,0.095577 0.26626,0.3208247 0.22659,0.9535043 -0.15506,2.4732759 -0.28207,1.1231945 -0.78795,2.5184031 -1.12419,3.1004631 -0.33623,0.58206 -0.61133,1.19406 -0.61133,1.36 0,0.495976 1.80897,0.341067 2.25209,-0.192854 0.22574,-0.272009 0.61961,-0.414299 0.87526,-0.316199 0.56437,0.216571 2.45213,-0.903318 3.11289,-1.8466866 0.26387,-0.3767258 0.47976,-0.9975085 0.47976,-1.3795171 0,-0.382009 0.20192,-0.7720464 0.44871,-0.8667498 0.2468,-0.094703 0.5348,-0.08611 0.64,0.019098 0.10521,0.1052067 0.19129,0.6215814 0.19129,1.1474992 0,0.7064211 -0.34999,1.2891523 -1.33978,2.2307113 -0.73687,0.700973 -2.13252,1.625089 -3.10144,2.053591 -1.21561,0.537601 -1.63073,0.860022 -1.33923,1.040179 0.23234,0.143596 0.3299,0.410816 0.2168,0.593822 -0.11311,0.183006 0.12045,0.445797 0.519,0.583981 0.39856,0.138184 2.15255,0.256551 3.89777,0.263039 1.93583,0.0072 3.21719,0.143764 3.28615,0.350239 0.19378,0.580238 -1.27043,1.62753 -2.88289,2.062017 l -1.54361,0.415939 3.8704,1.853914 c 2.12872,1.019653 4.24677,2.149963 4.70677,2.5118 0.46001,0.361837 1.1121,0.657886 1.44911,0.657886 0.337,0 1.07358,0.23573 1.63684,0.523845 1.43814,0.735627 3.44151,2.355246 3.69276,2.985396 0.21092,0.528986 1.67791,1.884603 6.19005,5.720084 1.31304,1.116128 2.65003,2.517104 2.9711,3.11328 0.32106,0.596176 0.84887,1.168105 1.17291,1.270953 0.32405,0.102848 2.067,1.763911 3.87323,3.691248 2.29485,2.44872 3.44883,3.952112 3.83107,4.991085 0.30085,0.817757 0.96896,1.931719 1.4847,2.475469 0.51573,0.543754 1.04446,1.34864 1.17495,1.78864 0.13049,0.44 0.73869,1.800803 1.35155,3.024006 0.61287,1.223204 1.31695,2.9064 1.56463,3.740439 0.24768,0.834035 0.87937,2.381158 1.40375,3.438045 0.52437,1.056889 0.95341,2.052243 0.95341,2.2119 0,0.303629 0.48092,1.223268 3.13017,5.98561 1.12421,2.020906 1.70689,3.503802 1.95336,4.971216 0.21563,1.283824 0.2428,2.469354 0.0704,3.070614 -0.15449,0.538669 -0.29151,2.645418 -0.30449,4.681664 -0.013,2.036247 -0.1123,4.055709 -0.22072,4.487693 -0.10842,0.431984 0.0298,2.100253 0.30709,3.707261 0.27733,1.607011 0.50252,3.965773 0.50043,5.241693 -0.002,1.275923 -0.20409,3.072221 -0.4489,3.991773 -0.24481,0.919552 -0.76481,2.189205 -1.15556,2.821455 -0.39075,0.63225 -1.13196,2.32789 -1.64713,3.76809 -1.05503,2.94945 -1.2771,3.67299 -2.03137,6.61854 -0.29295,1.144 -0.73527,2.55289 -0.98293,3.13086 -0.24767,0.57797 -0.45031,1.31769 -0.45031,1.64383 0,0.84841 -1.74612,3.51143 -4.17323,6.36462 -1.15127,1.35338 -2.49986,3.16263 -2.99685,4.02057 -0.497,0.85792 -1.39105,2.09938 -1.98678,2.75878 -0.59573,0.6594 -1.08314,1.33635 -1.08314,1.50434 0,0.16799 -0.37406,0.65454 -0.83125,1.08122 -0.45719,0.42668 -1.82344,2.01758 -3.0361,3.53534 -1.21266,1.51776 -2.60289,2.92444 -3.0894,3.12595 -0.4865,0.20152 -2.02758,1.51364 -3.42461,2.91582 l -2.54006,2.54942 -5.29929,2.61126 c -2.91461,1.43619 -5.85258,2.89496 -6.52883,3.2417 -0.83283,0.42704 -1.57959,0.57364 -2.31449,0.45438 -0.63349,-0.1028 -1.98003,0.0799 -3.23597,0.43907 -1.62102,0.46357 -2.7065,0.57007 -4.4055,0.43223 -1.23998,-0.10059 -2.450718,-0.24456 -2.690538,-0.31993 -0.344234,-0.10818 -0.35473,-0.23501 -0.04985,-0.60237 0.212407,-0.25593 0.844168,-0.44812 1.403908,-0.42707 1.55612,0.0585 6.69977,-1.36786 7.24198,-2.00823 0.264,-0.3118 2.424,-1.55883 4.8,-2.77119 2.376,-1.21236 6.192,-3.51383 8.48,-5.11438 4.3904,-3.07127 9.91706,-8.00054 10.71777,-9.55927 0.74417,-1.44866 3.28432,-5.30741 4.19125,-6.36695 0.67347,-0.7868 2.02634,-3.07441 2.8584,-4.83338 0.34171,-0.72236 1.1947,-1.94068 1.89554,-2.70739 l 1.27425,-1.39402 -0.51208,-0.56584 c -0.4476,-0.49459 -0.45977,-0.75813 -0.0966,-2.09261 0.43019,-1.58094 1.16621,-2.86922 2.42631,-4.24686 0.90071,-0.98472 2.62513,-6.14762 2.99263,-8.959899 0.14949,-1.144 0.66822,-2.934624 1.15273,-3.979165 l 0.88093,-1.899168 -0.41009,-1.460832 c -0.86408,-3.078035 -1.01047,-4.73872 -0.8169,-9.266829 0.10989,-2.570704 0.22818,-6.258006 0.26285,-8.194006 0.0478,-2.66777 -0.0733,-3.907376 -0.50022,-5.12 -0.76768,-2.180666 -1.70515,-5.157891 -2.14285,-6.805306 -0.38615,-1.453388 -1.91176,-3.442982 -2.87433,-3.748489 -0.31956,-0.101424 -1.10212,-0.936314 -1.73901,-1.855309 -0.63689,-0.918992 -1.6604,-2.367485 -2.27446,-3.21887 -1.11915,-1.55168 -1.5116,-2.62496 -2.21306,-6.052365 l -0.37664,-1.840336 -3.02819,-2.580679 c -2.07912,-1.771865 -3.40398,-3.200918 -4.22722,-4.559664 -0.65947,-1.088438 -1.19947,-2.145574 -1.2,-2.349184 C 127.35988,36.174493 124.40136,33.6 123.92519,33.6 c -0.1683,0 -0.57998,-0.302742 -0.91484,-0.672762 -0.33486,-0.370019 -1.01634,-0.883484 -1.51439,-1.141038 -0.49805,-0.257553 -1.54738,-0.958198 -2.33184,-1.556989 -0.82075,-0.626496 -2.40654,-1.376064 -3.7352,-1.765549 -1.26991,-0.37226 -2.82066,-1.024873 -3.44612,-1.45025 -0.65623,-0.446303 -1.60362,-0.774271 -2.24,-0.775443 -0.66948,-0.0012 -2.21719,-0.567046 -3.93895,-1.44 -1.55989,-0.790883 -3.157,-1.437969 -3.54914,-1.437969 -0.39215,0 -1.41988,-0.224715 -2.283852,-0.499366 -2.693309,-0.856188 -5.637837,-1.416016 -6.417965,-1.220217 -0.603133,0.151377 -0.710554,0.336862 -0.554704,0.957813 0.107014,0.426374 0.01702,0.982463 -0.201639,1.245926 C 92.283917,24.461844 91.2,24.459022 91.2,23.84 c 0,-0.560782 -0.819885,-0.645595 -1.145642,-0.118511 -0.126473,0.204637 0.299085,0.854434 0.980765,1.49756 1.431792,1.350814 2.188451,2.910483 1.698451,3.500951 -0.182566,0.22 -0.449891,0.4 -0.594054,0.4 -0.144163,0 -0.933616,-0.872667 -1.754339,-1.939259 l -1.492224,-1.939258 -0.582669,0.527307 c -0.320467,0.29002 -0.845382,0.477215 -1.16648,0.41599 -0.671082,-0.127959 -0.956352,-1.383104 -0.452368,-1.990367 0.252995,-0.304839 0.124595,-0.60888 -0.499331,-1.182386 C 85.548202,22.420156 85.31521,22.344385 85.193661,22.687323 84.929107,23.433745 83.32273,24.96 82.801677,24.96 c -0.286416,0 -0.570378,-0.397757 -0.685357,-0.96 -0.107978,-0.528 -0.284662,-1.392 -0.39264,-1.92 -0.107974,-0.528 -0.323974,-0.96 -0.48,-0.96 -0.156022,0 -0.28368,0.408 -0.28368,0.906667 0,0.498666 -0.07118,0.977847 -0.158179,1.064845 -0.087,0.087 -0.575821,0.09688 -1.086275,0.02196 C 78.993725,23.007536 78.746173,22.770869 78.601725,22.048631 78.499578,21.537884 78.278762,21.12 78.111027,21.12 c -0.167737,0 -0.405357,0.803435 -0.528048,1.78541 -0.127491,1.020418 -0.40671,1.85588 -0.651667,1.949878 C 76.38969,25.063129 74.56,23.783678 74.56,23.197095 c 0,-0.7435 -0.53783,-0.822415 -1.315158,-0.192971 -0.653351,0.52905 -0.696516,0.700139 -0.361924,1.434493 0.208948,0.45859 0.296365,1.051506 0.194256,1.317591 -0.219292,0.571475 -1.431379,0.641588 -1.959612,0.113354 -0.280583,-0.280584 -0.496708,-0.265643 -0.891005,0.0616 -0.286311,0.237618 -0.947331,1.052315 -1.468935,1.810438 -0.925443,1.345082 -1.634569,1.710556 -2.041488,1.052149 -0.37886,-0.613009 0.492404,-2.432193 1.755604,-3.665677 0.693964,-0.677639 1.187222,-1.35267 1.096124,-1.500069 C 69.476765,23.480599 69.122726,23.36 68.781114,23.36 68.439501,23.36 68.16,23.576 68.16,23.84 c 0,0.705102 -1.201302,0.584972 -1.6,-0.16 -0.243357,-0.454716 -0.243357,-0.825284 0,-1.28 0.370963,-0.69315 0.23081,-0.764386 -1.28,-0.65058 -1.250259,0.09418 -9.21543,3.016622 -12.025734,4.412276 -2.804109,1.392576 -9.661959,5.780028 -10.372224,6.635846 -0.249143,0.300196 -1.277063,1.179924 -2.284272,1.954954 -1.00721,0.77503 -2.721268,2.596774 -3.809015,4.048323 -2.586816,3.451981 -5.729495,6.715043 -6.268209,6.50832 -0.257257,-0.09872 -1.10521,0.745709 -2.152953,2.144 C 27.416897,48.721914 26.16044,50.552 25.575467,51.52 c -0.584974,0.968 -1.595186,2.408 -2.244915,3.2 -2.37018,2.889174 -3.932002,6.898275 -4.784646,12.281891 -0.365688,2.30896 -1.034849,6.270723 -1.487026,8.80392 -0.738631,4.137981 -0.803137,5.129338 -0.635071,9.76 0.102888,2.834803 0.333182,6.098983 0.511766,7.253731 0.431055,2.787264 2.441654,10.296148 3.095462,11.560478 0.285609,0.55231 0.79445,1.80396 1.130758,2.78146 0.336309,0.9775 1.528867,3.15005 2.650131,4.82789 1.121263,1.67785 2.494232,3.89658 3.051042,4.93051 0.55681,1.03394 0.970452,2.19985 0.919204,2.59093 -0.05655,0.43155 0.525087,1.64228 1.479694,3.08011 0.865079,1.303 1.957192,2.81719 2.426918,3.36488 0.469725,0.54769 1.43665,2.2161 2.148717,3.70758 0.722416,1.51314 1.698627,3.02839 2.208585,3.4281 0.502653,0.39398 3.433914,2.37042 6.513914,4.39208 3.08,2.02168 5.888,3.93679 6.24,4.25581 0.608835,0.5518 6.875162,3.67357 9.002406,4.48484 0.551325,0.21026 1.415325,0.81669 1.92,1.34761 0.504676,0.53092 1.349594,1.19301 1.877594,1.4713 0.528,0.27829 1.881552,0.66144 3.007894,0.85143 1.36504,0.23027 2.1653,0.53843 2.4,0.92419 0.281066,0.46198 0.226784,0.6718 -0.269056,1.04 -0.615862,0.45732 -1.525676,0.60775 -1.830736,0.3027 z M 59.733334,14.186667 C 59.616,14.069333 59.424,14.069333 59.306666,14.186667 59.189334,14.304 59.285334,14.4 59.52,14.4 c 0.234666,0 0.330666,-0.096 0.213334,-0.213333 z m 40.904396,-0.103002 c 0.11211,-0.181395 -0.0164,-0.235042 -0.30111,-0.125763 C 99.782246,14.170635 99.680816,14.4 100.14111,14.4 c 0.16562,0 0.3891,-0.142351 0.49662,-0.316335 z M 77.333334,2.6666667 C 77.216,2.5493333 77.12,2.6453333 77.12,2.88 c 0,0.2346667 0.096,0.3306666 0.213334,0.2133333 0.117332,-0.1173333 0.117332,-0.3093333 0,-0.4266666 z m 5.76,0 C 82.976,2.5493333 82.88,2.6453333 82.88,2.88 c 0,0.2346667 0.096,0.3306666 0.213334,0.2133333 0.117332,-0.1173333 0.117332,-0.3093333 0,-0.4266666 z"
     id="path4046"
     inkscape:connector-curvature="0" />
</svg>
